{
  "project_info": {
    "project_number": "477698474175",
    "firebase_url": "https://slash-678ee.firebaseio.com",
    "project_id": "slash-678ee",
    "storage_bucket": "slash-678ee.appspot.com"
  },
  "client": [
    {
      "client_info": {
        "mobilesdk_app_id": "1:477698474175:android:7e4bf4d92867790ccec60a",
        "android_client_info": {
          "package_name": "com.oversoar.slash"
        }
      },
      "oauth_client": [
        {
          "client_id": "477698474175-1vtm1jekdkcbols7enuhd4st5l69haf9.apps.googleusercontent.com",
          "client_type": 1,
          "android_info": {
            "package_name": "com.oversoar.slash",
            "certificate_hash": "c5c7c3d8e773669cf7bd742f86a7e78a141bcbd5"
          }
        },
        {
          "client_id": "477698474175-tq4vamgdbhsno4mn5frs318jl8dddp8o.apps.googleusercontent.com",
          "client_type": 3
        }
      ],
      "api_key": [
        {
          "current_key": "AIzaSyDmfrKy0AzC6V1kgO0DG7tFYoNEIg7OCL8"
        }
      ],
      "services": {
        "appinvite_service": {
          "other_platform_oauth_client": [
            {
              "client_id": "477698474175-th2lg1so768binbellsna6f46pj7pk3h.apps.googleusercontent.com",
              "client_type": 3
            },
            {
              "client_id": "477698474175-kla3kf120rju5bhdjc36o1nmpojchmui.apps.googleusercontent.com",
              "client_type": 2,
              "ios_info": {
                "bundle_id": "com.oversoar.slash"
              }
            }
          ]
        }
      }
    }
  ],
  "configuration_version": "1"
}